/Users/stuart.robinson/Documents/repos/tests/src/test/java/tests/Simple2Test.java
/Users/stuart.robinson/Documents/repos/tests/src/test/java/utilities/ned/MyLogger.java
/Users/stuart.robinson/Documents/repos/tests/src/test/java/tests/SimpleTest.java
/Users/stuart.robinson/Documents/repos/tests/src/test/java/utilities/UiTestClass.java
/Users/stuart.robinson/Documents/repos/tests/src/test/java/utilities/ned/FileHtmlUnescaper.java
